{
  "posts": [
    {
      "username": "cludiart",
      "picture": "http://o3.fbl.pl/w640/o2/201607/27/174733093.jpg",
      "liked": false,
      "picture_width": 0,
      "likes": 0,
      "note_text": "",
      "date": 0,
      "note_title": "..",
      "user_id": 11159368,
      "picture_height": 0,
      "comments": 0,
      "username_avatar": "https://dl.dropboxusercontent.com/u/117534/13754302_10154133516606348_6119914870363595361_n.jpg",
      "fid": 174733093
    },
    {
      "username": "alaram1",
      "picture": "http://o1.fbl.pl/w640/o3/201607/C3/174733075.jpg",
      "liked": false,
      "picture_width": 0,
      "likes": 0,
      "note_text": "<p><span style=\\\"font-size: 12pt\\\">Na wi\u0119cej zapraszam do\u00a0<\/span><span style=\\\"font-size: 16px\\\">http://soalicepl.blogspot.fr/<\/span><\/p>",
      "date": 1468588639,
      "note_title": "",
      "user_id": 12084229,
      "picture_height": 0,
      "comments": 2,
      "username_avatar": "https://dl.dropboxusercontent.com/u/117534/13754302_10154133516606348_6119914870363595361_n.jpg",
      "fid": 174733075
    },
    {
      "username": "psychickid",
      "picture": "http://o3.fbl.pl/w640/o3/201607/69/174733055.jpg",
      "liked": false,
      "picture_width": 0,
      "likes": 0,
      "note_text": "<p style=\\\"text-align: center\\\">\u00a0<\/p><p style=\\\"text-align: center\\\">\u00a0<\/p><p style=\\\"text-align: center\\\"><span style=\\\"font-size: 8pt; font-family: \\'book antiqua\\', palatino\\\">kto\u015b tu si\u0119 obroni\u0142\u00a0<\/span><\/p><p style=\\\"text-align: center\\\"><span style=\\\"font-size: 8pt; font-family: \\'book antiqua\\', palatino\\\">ojeju, uda\u0142o si\u0119<\/span><\/p><p style=\\\"text-align: center\\\">\u00a0<\/p><p style=\\\"text-align: center\\\">\u00a0<\/p><p style=\\\"text-align: center\\\">\u00a0<\/p><p style=\\\"text-align: center\\\">\u00a0<\/p><p style=\\\" ",
      "date": 1468590856,
      "note_title": "",
      "user_id": 359820,
      "picture_height": 0,
      "comments": 2,
      "username_avatar": "https://dl.dropboxusercontent.com/u/117534/13754302_10154133516606348_6119914870363595361_n.jpg",
      "fid": 174733055
    },
    {
      "username": "karrrmelowa",
      "picture": "http://o3.fbl.pl/w640/o5/201607/31/174732879.jpg",
      "liked": false,
      "picture_width": 0,
      "likes": 0,
      "note_text": "Najwspanialsze sa ma\u0142e gesty :)<br>To moja milosc jest moim szczesciem&lt;3",
      "date": 1468582670,
      "note_title": "",
      "user_id": 11199577,
      "picture_height": 0,
      "comments": 0,
      "username_avatar": "https://dl.dropboxusercontent.com/u/117534/13754302_10154133516606348_6119914870363595361_n.jpg",
      "fid": 174732879
    },
    {
      "username": "pinkydream",
      "picture": "http://o2.fbl.pl/w640/o1/201607/3F/174732871.jpg",
      "liked": false,
      "picture_width": 0,
      "likes": 0,
      "note_text": "Podejrzewam u siebie kandydoze jelita :o :/<br>Chce ju\u017c kolonoskopie! :(",
      "date": 1468585085,
      "note_title": "",
      "user_id": 10924445,
      "picture_height": 0,
      "comments": 2,
      "username_avatar": "https://dl.dropboxusercontent.com/u/117534/13754302_10154133516606348_6119914870363595361_n.jpg",
      "fid": 174732871
    },
    {
      "username": "mysteriousgirl",
      "picture": "http://o3.fbl.pl/w640/o3/201607/2A/174732845.jpg",
      "liked": false,
      "picture_width": 0,
      "likes": 0,
      "note_text": "<p style=\\\"text-align: center\\\"><span style=\\\"font-size: 12pt; font-family: georgia, palatino\\\"><strong><em>Nie b\u0105d\u017a smutna, no nie b\u0105d\u017a,<\/em><\/strong><\/span><\/p><p style=\\\"text-align: center\\\"><span style=\\\"font-size: 12pt; font-family: georgia, palatino\\\"><strong><em>ta chmura jest ma\u0142\u0105 chmurk\u0105,<\/em><\/strong><\/span><\/p><p style=\\\"text-align: center\\\"><span style=\\\"font-size: 12pt; font-family: georgia, palatino\\\"><strong><em>jutro ju\u017c b\u0119dzie s\u0142o\u0144ce<\/em><\/strong><\/span><\/p><p style=\\\"text-align",
      "date": 1468581999,
      "note_title": " Nie b\u0105d\u017a smutna",
      "user_id": 429863,
      "picture_height": 0,
      "comments": 0,
      "username_avatar": "https://dl.dropboxusercontent.com/u/117534/13754302_10154133516606348_6119914870363595361_n.jpg",
      "fid": 174732845
    },
    {
      "username": "mauurel",
      "picture": "http://o5.fbl.pl/w640/o2/201607/5E/174732793.jpg",
      "liked": false,
      "picture_width": 0,
      "likes": 0,
      "note_text": "<p style=\\\"text-align: center\\\"><em>\u001eJe\u015bli co\u015b by\u0142o na tyle wa\u017cne, \u017ce nie mo\u017cesz o tym zapomnie\u0107, wiedz, \u017ce musi do ciebie wr\u00f3ci\u0107.<\/em><\/p><p style=\\\"text-align: center\\\"><em>Mo\u017ce w innej osobie, innym miejscu, czasie, ale wr\u00f3ci.\u001d<\/em><\/p>",
      "date": 1468583221,
      "note_title": "",
      "user_id": 10916264,
      "picture_height": 0,
      "comments": 1,
      "username_avatar": "https://dl.dropboxusercontent.com/u/117534/13754302_10154133516606348_6119914870363595361_n.jpg",
      "fid": 174732793
    },
    {
      "username": "subaruimpreza",
      "picture": "http://o2.fbl.pl/w640/o5/201607/A1/174732749.jpg",
      "liked": false,
      "picture_width": 0,
      "likes": 0,
      "note_text": "<p style=\\\"text-align: center\\\">jedziemy dzisiaj na wycieczk\u0119, ja kierowca.<\/p><p style=\\\"text-align: center\\\">zaszala\u0142am- nakr\u0119ci\u0142am w\u0142osy, zrobi\u0142am ulubiony make up<\/p><p style=\\\"text-align: center\\\">a\u017c przypomnia\u0142y mi si\u0119 czasy, kiedy robi\u0142am to na codzie\u0144<\/p><p style=\\\"text-align: center\\\">raz w miesi\u0105cu farbowa\u0142am w\u0142osy, mia\u0142am przyklejane rz\u0119sy i idealnie wykonturowan\u0105 twarz<\/p><p style=\\\"text-align: center\\\">ach, technikum! znam jednak przyczyczyn\u0119<\/p><p style=\\\"text-align: center\\\">dlacz",
      "date": 1468582429,
      "note_title": "",
      "user_id": 12056578,
      "picture_height": 0,
      "comments": 0,
      "username_avatar": "https://dl.dropboxusercontent.com/u/117534/13754302_10154133516606348_6119914870363595361_n.jpg",
      "fid": 174732749
    },
    {
      "username": "kaaamilcia",
      "picture": "http://o3.fbl.pl/w640/o2/201607/23/174732703.jpg",
      "liked": false,
      "picture_width": 0,
      "likes": 0,
      "note_text": "",
      "date": 1468579364,
      "note_title": "",
      "user_id": 11899996,
      "picture_height": 0,
      "comments": 0,
      "username_avatar": "https://dl.dropboxusercontent.com/u/117534/13754302_10154133516606348_6119914870363595361_n.jpg",
      "fid": 174732703
    },
    {
      "username": "prdl",
      "picture": "http://o4.fbl.pl/w640/o2/201607/DB/174732683.jpg",
      "liked": false,
      "picture_width": 0,
      "likes": 0,
      "note_text": "",
      "date": 1468578878,
      "note_title": "",
      "user_id": 11341297,
      "picture_height": 0,
      "comments": 0,
      "username_avatar": "https://dl.dropboxusercontent.com/u/117534/13754302_10154133516606348_6119914870363595361_n.jpg",
      "fid": 174732683
    },
    {
      "username": "mysteriousgirl",
      "picture": "http://o3.fbl.pl/w640/o2/201607/C4/174732573.jpg",
      "liked": false,
      "picture_width": 0,
      "likes": 0,
      "note_text": "Wszystkie plany posz\u0142y w d.... Szpital , 2 godziny czekania na RTG, teraz czekanie na lekarza. A w karcie wpisane \"Rana k\u0142uta no\u017cem\"....",
      "date": 1468579173,
      "note_title": "",
      "user_id": 429863,
      "picture_height": 0,
      "comments": 1,
      "username_avatar": "https://dl.dropboxusercontent.com/u/117534/13754302_10154133516606348_6119914870363595361_n.jpg",
      "fid": 174732573
    },
    {
      "username": "kejtiz",
      "picture": "http://o4.fbl.pl/w640/o2/201607/D6/174732543.jpg",
      "liked": false,
      "picture_width": 0,
      "likes": 0,
      "note_text": "",
      "date": 1468578689,
      "note_title": "",
      "user_id": 11265021,
      "picture_height": 0,
      "comments": 3,
      "username_avatar": "https://dl.dropboxusercontent.com/u/117534/13754302_10154133516606348_6119914870363595361_n.jpg",
      "fid": 174732543
    },
    {
      "username": "kalein",
      "picture": "http://o2.fbl.pl/w640/o1/201607/48/174732531.jpg",
      "liked": false,
      "picture_width": 0,
      "likes": 0,
      "note_text": "<p style=\"text-align: center\">No i ju\u017c pi\u0105teczek! A wczoraj zrobi\u0142am tort dla lalek. Dzi\u015b zrobi jakie\u015b \u0142adne zdj\u0119cia, to go Wam poka\u017c\u0119 :D. Jestem z niego mega dumna xD, a p\u0105czki zdecydowanie b\u0119d\u0119 musia\u0142a zrobi\u0107 jeszcze raz, a te spo\u017cytkowa\u0142am w inny spos\u00f3b.<\/p><p style=\"text-align: center\">\u00a0<\/p><p style=\"text-align: center\">Dzi\u015b widz\u0119 si\u0119 z przyjaci\u00f3\u0142k\u0105, z piel\u0119gniark\u0105, kt\u00f3ra b\u0119dzie mi robi\u0107 spirometri\u0119 a potem z sekretark\u0105, kt\u00f3ra da mi moje \u015bwiadectwo uko\u0144czenia szko\u0142y. Ca\u0142kiem sporo tego xD.No",
      "date": 0,
      "note_title": "",
      "user_id": 12349618,
      "picture_height": 0,
      "comments": 0,
      "username_avatar": "https://dl.dropboxusercontent.com/u/117534/13754302_10154133516606348_6119914870363595361_n.jpg",
      "fid": 174732531
    },
    {
      "username": "suppressed",
      "picture": "http://o4.fbl.pl/w640/o4/201607/FE/174732477.jpg",
      "liked": false,
      "picture_width": 0,
      "likes": 0,
      "note_text": "<p style=\\\"text-align: center\\\">\u00a0<\/p><p style=\\\"text-align: center\\\">\u00a0<\/p><p style=\\\"text-align: center\\\">Pancakes w wersji fit.\u00a0<\/p><p style=\\\"text-align: center\\\">\u00a0<\/p><p style=\\\"text-align: center\\\">\u00a0<\/p>",
      "date": 1468577062,
      "note_title": "",
      "user_id": 11071313,
      "picture_height": 0,
      "comments": 1,
      "username_avatar": "https://dl.dropboxusercontent.com/u/117534/13754302_10154133516606348_6119914870363595361_n.jpg",
      "fid": 174732477
    },
    {
      "username": "jezuswkaloszach",
      "picture": "http://o5.fbl.pl/w640/o5/201607/5E/174732459.jpg",
      "liked": false,
      "picture_width": 0,
      "likes": 0,
      "note_text": "<p><span style=\\\"font-size: 24px; text-align: center\\\">keroina x mishon x violet cosplay<\/span><\/p>",
      "date": 1468576838,
      "note_title": "",
      "user_id": 10428164,
      "picture_height": 0,
      "comments": 5,
      "username_avatar": "https://dl.dropboxusercontent.com/u/117534/13754302_10154133516606348_6119914870363595361_n.jpg",
      "fid": 174732459
    },
    {
      "username": "anonymouspig",
      "picture": "http://o5.fbl.pl/w640/o3/201607/CA/174732425.jpg",
      "liked": false,
      "picture_width": 0,
      "likes": 0,
      "note_text": "",
      "date": 1468575955,
      "note_title": "",
      "user_id": 11854525,
      "picture_height": 0,
      "comments": 2,
      "username_avatar": "https://dl.dropboxusercontent.com/u/117534/13754302_10154133516606348_6119914870363595361_n.jpg",
      "fid": 174732425
    },
    {
      "username": "wyyrafinowana",
      "picture": "http://o3.fbl.pl/w640/o4/201607/DB/174732417.jpg",
      "liked": false,
      "picture_width": 0,
      "likes": 0,
      "note_text": "",
      "date": 1468575667,
      "note_title": "",
      "user_id": 11270752,
      "picture_height": 0,
      "comments": 1,
      "username_avatar": "https://dl.dropboxusercontent.com/u/117534/13754302_10154133516606348_6119914870363595361_n.jpg",
      "fid": 174732417
    },
    {
      "username": "anita29",
      "picture": "http://o3.fbl.pl/w640/o4/201607/AC/174732397.jpg",
      "liked": false,
      "picture_width": 0,
      "likes": 0,
      "note_text": "",
      "date": 1468574925,
      "note_title": "",
      "user_id": 11834270,
      "picture_height": 0,
      "comments": 1,
      "username_avatar": "https://dl.dropboxusercontent.com/u/117534/13754302_10154133516606348_6119914870363595361_n.jpg",
      "fid": 174732397
    },
    {
      "username": "zarysduszy",
      "picture": "http://o4.fbl.pl/w640/o1/201607/48/174732371.jpg",
      "liked": false,
      "picture_width": 0,
      "likes": 0,
      "note_text": "<p>\u00a0<\/p><p>\u00a0<\/p><p>\u00a0<\/p><p>\u00a0<\/p><p>\u00a0<\/p><p style=\\\"text-align: center\\\"><span style=\\\"font-size: 14pt; font-family: times new roman,times\\\">PRETTY LITTLE EYE<a href=\\\"https://www.youtube.com/watch?v=xLC-U_SAMEQ\\\">S<\/a><\/span><\/p><p style=\\\"text-align: center\\\">\u00a0<\/p><p>\u00a0<\/p><p>\u00a0<\/p><p>\u00a0<\/p><p>\u00a0<\/p>",
      "date": 1468571653,
      "note_title": "",
      "user_id": 11079376,
      "picture_height": 0,
      "comments": 0,
      "username_avatar": "https://dl.dropboxusercontent.com/u/117534/13754302_10154133516606348_6119914870363595361_n.jpg",
      "fid": 174732371
    },
    {
      "username": "aquus",
      "picture": "http://o3.fbl.pl/w640/o1/201607/C7/174732331.jpg",
      "liked": false,
      "picture_width": 0,
      "likes": 0,
      "note_text": "<p style=\\\"text-align: center\\\"><a href=\\\"https://iamaga.blogspot.com\\\" target=\\\"_blank\\\"><strong><span style=\\\"font-size: 18pt\\\">blogspot<\/span><\/strong><\/a><\/p>",
      "date": 1468569818,
      "note_title": "",
      "user_id": 335860,
      "picture_height": 0,
      "comments": 3,
      "username_avatar": "https://dl.dropboxusercontent.com/u/117534/13754302_10154133516606348_6119914870363595361_n.jpg",
      "fid": 174732331
    },
    {
      "username": "gumosia",
      "picture": "http://o3.fbl.pl/w640/o4/201607/DB/174732257.jpg",
      "liked": false,
      "picture_width": 0,
      "likes": 0,
      "note_text": "",
      "date": 1468567410,
      "note_title": "",
      "user_id": 337066,
      "picture_height": 0,
      "comments": 2,
      "username_avatar": "https://dl.dropboxusercontent.com/u/117534/13754302_10154133516606348_6119914870363595361_n.jpg",
      "fid": 174732257
    },
    {
      "username": "aleksandrra22",
      "picture": "http://o1.fbl.pl/w640/o1/201607/DF/174732251.jpg",
      "liked": false,
      "picture_width": 0,
      "likes": 0,
      "note_text": "<p>Ramzuu\u015b ;d &lt;3\u00a0<\/p><p>Wybiegany szcz\u0119\u015bliwy pieees ;p<\/p>",
      "date": 1468569759,
      "note_title": "",
      "user_id": 12360718,
      "picture_height": 0,
      "comments": 0,
      "username_avatar": "https://dl.dropboxusercontent.com/u/117534/13754302_10154133516606348_6119914870363595361_n.jpg",
      "fid": 174732251
    },
    {
      "username": "jedzzdrowo",
      "picture": "http://o5.fbl.pl/w640/o1/201607/42/174732221.jpg",
      "liked": false,
      "picture_width": 0,
      "likes": 0,
      "note_text": "<p style=\\\"text-align: center\\\"><span style=\\\"font-size: 10pt\\\"><strong>mo\u017ce niepozornie wygl\u0105daj\u0105cy obiad, ale pyszny :3<\/strong><\/span><\/p><p style=\\\"text-align: center\\\">\u00a0<\/p><p style=\\\"text-align: center\\\">\u00a0<\/p><p style=\\\"text-align: center\\\"><strong><a href=\\\"http://ziarnista.blogspot.com/2016/07/kasza-orkiszowa-z-kotletami-z-cukinii.html\\\"><span style=\\\"font-size: 12pt\\\">http://ziarnista.blogspot.com/2016/07/kasza-orkiszowa-z-kotletami-z-cukinii.html<\/span><\/a><\/strong><\/p>",
      "date": 1468568826,
      "note_title": "",
      "user_id": 11954763,
      "picture_height": 0,
      "comments": 0,
      "username_avatar": "https://dl.dropboxusercontent.com/u/117534/13754302_10154133516606348_6119914870363595361_n.jpg",
      "fid": 174732221
    },
    {
      "username": "wielkaaa19",
      "picture": "http://o4.fbl.pl/w640/o5/201607/64/174732189.jpg",
      "liked": false,
      "picture_width": 0,
      "likes": 0,
      "note_text": "<p><em><span style=\\\"color:#008000\\\"><span style=\\\"font-size: 12pt\\\">fot.Milena Gunia &lt;3 <a href=\\\"https://www.facebook.com/MylkaPhoto/?fref=ts\\\"><span style=\\\"color:#008000\\\">FB<\/span><\/a><\/span><\/span><\/em><\/p><p><em><span style=\\\"color:#008000\\\"><span style=\\\"font-size: 12pt\\\">mua.Karolina Wagner &lt;3 <a href=\\\"https://www.facebook.com/karolinawagnermakeup/?fref=ts\\\"><span style=\\\"color:#008000\\\">FB<\/span><\/a><\/span><\/span><\/em><\/p>",
      "date": 1468565903,
      "note_title": "",
      "user_id": 371213,
      "picture_height": 0,
      "comments": 11,
      "username_avatar": "https://dl.dropboxusercontent.com/u/117534/13754302_10154133516606348_6119914870363595361_n.jpg",
      "fid": 174732189
    },
    {
      "username": "prdl",
      "picture": "http://o4.fbl.pl/w640/o1/201607/98/174732151.jpg",
      "liked": false,
      "picture_width": 0,
      "likes": 0,
      "note_text": "",
      "date": 1468564450,
      "note_title": "",
      "user_id": 11341297,
      "picture_height": 0,
      "comments": 0,
      "username_avatar": "https://dl.dropboxusercontent.com/u/117534/13754302_10154133516606348_6119914870363595361_n.jpg",
      "fid": 174732151
    },
    {
      "username": "prdl",
      "picture": "http://o3.fbl.pl/w640/o5/201607/01/174732079.jpg",
      "liked": false,
      "picture_width": 0,
      "likes": 0,
      "note_text": "",
      "date": 1468563746,
      "note_title": "",
      "user_id": 11341297,
      "picture_height": 0,
      "comments": 0,
      "username_avatar": "https://dl.dropboxusercontent.com/u/117534/13754302_10154133516606348_6119914870363595361_n.jpg",
      "fid": 174732079
    },
    {
      "username": "wyyrafinowana",
      "picture": "http://o5.fbl.pl/w640/o5/201607/8E/174732039.jpg",
      "liked": false,
      "picture_width": 0,
      "likes": 0,
      "note_text": "optyk i wiele innych spraw",
      "date": 1468562295,
      "note_title": "",
      "user_id": 11270752,
      "picture_height": 0,
      "comments": 1,
      "username_avatar": "https://dl.dropboxusercontent.com/u/117534/13754302_10154133516606348_6119914870363595361_n.jpg",
      "fid": 174732039
    },
    {
      "username": "prdl",
      "picture": "http://o2.fbl.pl/w640/o5/201607/8A/174731979.jpg",
      "liked": false,
      "picture_width": 0,
      "likes": 0,
      "note_text": "",
      "date": 1468550077,
      "note_title": "",
      "user_id": 11341297,
      "picture_height": 0,
      "comments": 0,
      "username_avatar": "https://dl.dropboxusercontent.com/u/117534/13754302_10154133516606348_6119914870363595361_n.jpg",
      "fid": 174731979
    },
    {
      "username": "prdl",
      "picture": "http://o1.fbl.pl/w640/o4/201607/80/174731977.jpg",
      "liked": false,
      "picture_width": 0,
      "likes": 0,
      "note_text": "",
      "date": 1468552369,
      "note_title": "",
      "user_id": 11341297,
      "picture_height": 0,
      "comments": 0,
      "username_avatar": "https://dl.dropboxusercontent.com/u/117534/13754302_10154133516606348_6119914870363595361_n.jpg",
      "fid": 174731977
    },
    {
      "username": "angelfuckk",
      "picture": "http://o1.fbl.pl/w640/o2/201607/95/174731943.jpg",
      "liked": false,
      "picture_width": 0,
      "likes": 0,
      "note_text": "<p style=\"text-align: center\"><a href=\"https://www.youtube.com/watch?v=gDb8hduT584\">Mum - We Have A Map Of The Piano<\/a><\/p><p style=\"text-align: center\">\u00a0<\/p><p style=\"text-align: center\">\u00a0<\/p><p style=\"text-align: center\">Zdj\u0119cie : Sebastian Paszkiewicz<\/p><p style=\"text-align: center\">\u00a0<\/p><p style=\"text-align: center\">\u00a0<\/p><p style=\"text-align: center\">Dzi\u015b ruszyli\u015bmy do Carcassonne obejrze\u0107 pokaz fajerwerk\u00f3w. Pi\u0119kne to by\u0142o.<\/p><p style=\"text-align: center\">Bartosz pokaza\u0142 mi nowy zesp\u00f3\u0142, z",
      "date": 1468540715,
      "note_title": "",
      "user_id": 512603,
      "picture_height": 0,
      "comments": 2,
      "username_avatar": "https://dl.dropboxusercontent.com/u/117534/13754302_10154133516606348_6119914870363595361_n.jpg",
      "fid": 174731943
    },
    {
      "username": "anita29",
      "picture": "http://o1.fbl.pl/w640/o1/201607/8E/174731821.jpg",
      "liked": false,
      "picture_width": 0,
      "likes": 0,
      "note_text": "",
      "date": 1468536021,
      "note_title": "",
      "user_id": 11834270,
      "picture_height": 0,
      "comments": 1,
      "username_avatar": "https://dl.dropboxusercontent.com/u/117534/13754302_10154133516606348_6119914870363595361_n.jpg",
      "fid": 174731821
    },
    {
      "username": "paralavida",
      "picture": "http://o1.fbl.pl/w640/o5/201607/92/174731819.jpg",
      "liked": false,
      "picture_width": 0,
      "likes": 0,
      "note_text": "",
      "date": 1468536063,
      "note_title": "14662.",
      "user_id": 10265184,
      "picture_height": 0,
      "comments": 2,
      "username_avatar": "https://dl.dropboxusercontent.com/u/117534/13754302_10154133516606348_6119914870363595361_n.jpg",
      "fid": 174731819
    },
    {
      "username": "paralavida",
      "picture": "http://o5.fbl.pl/w640/o4/201607/98/174731817.jpg",
      "liked": false,
      "picture_width": 0,
      "likes": 0,
      "note_text": "",
      "date": 1468533485,
      "note_title": "14661.",
      "user_id": 10265184,
      "picture_height": 0,
      "comments": 1,
      "username_avatar": "https://dl.dropboxusercontent.com/u/117534/13754302_10154133516606348_6119914870363595361_n.jpg",
      "fid": 174731817
    },
    {
      "username": "paralavida",
      "picture": "http://o5.fbl.pl/w640/o2/201607/9F/174731813.jpg",
      "liked": false,
      "picture_width": 0,
      "likes": 0,
      "note_text": "",
      "date": 1468535917,
      "note_title": "14660.",
      "user_id": 10265184,
      "picture_height": 0,
      "comments": 1,
      "username_avatar": "https://dl.dropboxusercontent.com/u/117534/13754302_10154133516606348_6119914870363595361_n.jpg",
      "fid": 174731813
    },
    {
      "username": "paralavida",
      "picture": "http://o2.fbl.pl/w640/o1/201607/9C/174731811.jpg",
      "liked": false,
      "picture_width": 0,
      "likes": 0,
      "note_text": "",
      "date": 1468535849,
      "note_title": "14659.",
      "user_id": 10265184,
      "picture_height": 0,
      "comments": 1,
      "username_avatar": "https://dl.dropboxusercontent.com/u/117534/13754302_10154133516606348_6119914870363595361_n.jpg",
      "fid": 174731811
    },
    {
      "username": "paralavida",
      "picture": "http://o1.fbl.pl/w640/o5/201607/2A/174731809.jpg",
      "liked": false,
      "picture_width": 0,
      "likes": 0,
      "note_text": "",
      "date": 1468535792,
      "note_title": "14658.",
      "user_id": 10265184,
      "picture_height": 0,
      "comments": 1,
      "username_avatar": "https://dl.dropboxusercontent.com/u/117534/13754302_10154133516606348_6119914870363595361_n.jpg",
      "fid": 174731809
    },
    {
      "username": "anita29",
      "picture": "http://o3.fbl.pl/w640/o4/201607/20/174731807.jpg",
      "liked": false,
      "picture_width": 0,
      "likes": 0,
      "note_text": "",
      "date": 1468535753,
      "note_title": "",
      "user_id": 11834270,
      "picture_height": 0,
      "comments": 0,
      "username_avatar": "https://dl.dropboxusercontent.com/u/117534/13754302_10154133516606348_6119914870363595361_n.jpg",
      "fid": 174731807
    },
    {
      "username": "paralavida",
      "picture": "http://o1.fbl.pl/w640/o3/201607/23/174731805.jpg",
      "liked": false,
      "picture_width": 0,
      "likes": 0,
      "note_text": "",
      "date": 1468535719,
      "note_title": "14657.",
      "user_id": 10265184,
      "picture_height": 0,
      "comments": 1,
      "username_avatar": "https://dl.dropboxusercontent.com/u/117534/13754302_10154133516606348_6119914870363595361_n.jpg",
      "fid": 174731805
    },
    {
      "username": "paralavida",
      "picture": "http://o3.fbl.pl/w640/o1/201607/24/174731801.jpg",
      "liked": false,
      "picture_width": 0,
      "likes": 0,
      "note_text": "",
      "date": 1468535648,
      "note_title": "14656.",
      "user_id": 10265184,
      "picture_height": 0,
      "comments": 1,
      "username_avatar": "https://dl.dropboxusercontent.com/u/117534/13754302_10154133516606348_6119914870363595361_n.jpg",
      "fid": 174731801
    },
    {
      "username": "paralavida",
      "picture": "http://o1.fbl.pl/w640/o3/201607/DC/174731795.jpg",
      "liked": false,
      "picture_width": 0,
      "likes": 0,
      "note_text": "",
      "date": 1468535599,
      "note_title": "14655.",
      "user_id": 10265184,
      "picture_height": 0,
      "comments": 1,
      "username_avatar": "https://dl.dropboxusercontent.com/u/117534/13754302_10154133516606348_6119914870363595361_n.jpg",
      "fid": 174731795
    },
    {
      "username": "kurpi",
      "picture": "http://o2.fbl.pl/w640/o1/201607/DB/174731791.jpg",
      "liked": false,
      "picture_width": 0,
      "likes": 0,
      "note_text": "dzie\u0144 wolny w pe\u0142ni wykorzystany.<br>kolejny tatua\u017c jest hihi r\u0119kaw powolutku si\u0119 zape\u0142nia<br>wiecz\u00f3r z misiakami:* a humor dopisuje od kilku dni , oby tak dalej :)",
      "date": 1468535581,
      "note_title": "",
      "user_id": 11839386,
      "picture_height": 0,
      "comments": 1,
      "username_avatar": "https://dl.dropboxusercontent.com/u/117534/13754302_10154133516606348_6119914870363595361_n.jpg",
      "fid": 174731791
    },
    {
      "username": "anita29",
      "picture": "http://o1.fbl.pl/w640/o3/201607/64/174731785.jpg",
      "liked": false,
      "picture_width": 0,
      "likes": 0,
      "note_text": "",
      "date": 1468535406,
      "note_title": "",
      "user_id": 11834270,
      "picture_height": 0,
      "comments": 0,
      "username_avatar": "https://dl.dropboxusercontent.com/u/117534/13754302_10154133516606348_6119914870363595361_n.jpg",
      "fid": 174731785
    },
    {
      "username": "anita29",
      "picture": "http://o4.fbl.pl/w640/o5/201607/8D/174731769.jpg",
      "liked": false,
      "picture_width": 0,
      "likes": 0,
      "note_text": "",
      "date": 1468535138,
      "note_title": "",
      "user_id": 11834270,
      "picture_height": 0,
      "comments": 0,
      "username_avatar": "https://dl.dropboxusercontent.com/u/117534/13754302_10154133516606348_6119914870363595361_n.jpg",
      "fid": 174731769
    },
    {
      "username": "anita29",
      "picture": "http://o5.fbl.pl/w640/o5/201607/9F/174731759.jpg",
      "liked": false,
      "picture_width": 0,
      "likes": 0,
      "note_text": "",
      "date": 1468534995,
      "note_title": "",
      "user_id": 11834270,
      "picture_height": 0,
      "comments": 1,
      "username_avatar": "https://dl.dropboxusercontent.com/u/117534/13754302_10154133516606348_6119914870363595361_n.jpg",
      "fid": 174731759
    },
    {
      "username": "blackangel31",
      "picture": "http://o5.fbl.pl/w640/o4/201607/95/174731757.jpg",
      "liked": false,
      "picture_width": 0,
      "likes": 0,
      "note_text": "",
      "date": 1468532463,
      "note_title": "",
      "user_id": 11002752,
      "picture_height": 0,
      "comments": 3,
      "username_avatar": "https://dl.dropboxusercontent.com/u/117534/13754302_10154133516606348_6119914870363595361_n.jpg",
      "fid": 174731757
    },
    {
      "username": "anita29",
      "picture": "http://o5.fbl.pl/w640/o3/201607/96/174731755.jpg",
      "liked": false,
      "picture_width": 0,
      "likes": 0,
      "note_text": "",
      "date": 1468534877,
      "note_title": "",
      "user_id": 11834270,
      "picture_height": 0,
      "comments": 0,
      "username_avatar": "https://dl.dropboxusercontent.com/u/117534/13754302_10154133516606348_6119914870363595361_n.jpg",
      "fid": 174731755
    },
    {
      "username": "anita29",
      "picture": "http://o5.fbl.pl/w640/o2/201607/92/174731753.jpg",
      "liked": false,
      "picture_width": 0,
      "likes": 0,
      "note_text": "",
      "date": 1468534794,
      "note_title": "",
      "user_id": 11834270,
      "picture_height": 0,
      "comments": 0,
      "username_avatar": "https://dl.dropboxusercontent.com/u/117534/13754302_10154133516606348_6119914870363595361_n.jpg",
      "fid": 174731753
    },
    {
      "username": "anita29",
      "picture": "http://o2.fbl.pl/w640/o1/201607/29/174731741.jpg",
      "liked": false,
      "picture_width": 0,
      "likes": 0,
      "note_text": "",
      "date": 1468534395,
      "note_title": "",
      "user_id": 11834270,
      "picture_height": 0,
      "comments": 0,
      "username_avatar": "https://dl.dropboxusercontent.com/u/117534/13754302_10154133516606348_6119914870363595361_n.jpg",
      "fid": 174731741
    },
    {
      "username": "anitafphotographie",
      "picture": "http://o4.fbl.pl/w640/o1/201607/A6/174731701.jpg",
      "liked": false,
      "picture_width": 0,
      "likes": 0,
      "note_text": "",
      "date": 1468533660,
      "note_title": "",
      "user_id": 9975163,
      "picture_height": 0,
      "comments": 2,
      "username_avatar": "https://dl.dropboxusercontent.com/u/117534/13754302_10154133516606348_6119914870363595361_n.jpg",
      "fid": 174731701
    },
    {
      "username": "drasek",
      "picture": "http://o5.fbl.pl/w640/o4/201607/A8/174731657.jpg",
      "liked": false,
      "picture_width": 0,
      "likes": 0,
      "note_text": "<p style=\\\"text-align: center\\\">Je\u015bli m\u00f3j wentylator sufitowy by\u0142by w stanie utrzyma\u0107 moj\u0105 wag\u0119, to ju\u017c nigdy bym si\u0119 nie nudzi\u0142.<\/p>",
      "date": 1468530168,
      "note_title": "",
      "user_id": 560991,
      "picture_height": 0,
      "comments": 6,
      "username_avatar": "https://dl.dropboxusercontent.com/u/117534/13754302_10154133516606348_6119914870363595361_n.jpg",
      "fid": 174731657
    },
    {
      "username": "wyyrafinowana",
      "picture": "http://o2.fbl.pl/w640/o2/201607/27/174731483.jpg",
      "liked": false,
      "picture_width": 0,
      "likes": 0,
      "note_text": "Justa codziennie zaskakuje mnie nowym zadaniem :&gt;",
      "date": 1468529936,
      "note_title": "",
      "user_id": 11270752,
      "picture_height": 0,
      "comments": 0,
      "username_avatar": "https://dl.dropboxusercontent.com/u/117534/13754302_10154133516606348_6119914870363595361_n.jpg",
      "fid": 174731483
    },
    {
      "username": "daphnia",
      "picture": "http://o3.fbl.pl/w640/o2/201607/95/174731383.jpg",
      "liked": false,
      "picture_width": 0,
      "likes": 0,
      "note_text": "<p style=\\\"text-align: center\\\"><span style=\\\"font-size: 8pt\\\">Sto\u0142\u00f3wka<\/span><\/p>",
      "date": 1468528464,
      "note_title": "",
      "user_id": 11294327,
      "picture_height": 0,
      "comments": 3,
      "username_avatar": "https://dl.dropboxusercontent.com/u/117534/13754302_10154133516606348_6119914870363595361_n.jpg",
      "fid": 174731383
    },
    {
      "username": "suppressed",
      "picture": "http://o3.fbl.pl/w640/o3/201607/FE/174731325.jpg",
      "liked": false,
      "picture_width": 0,
      "likes": 0,
      "note_text": "<p style=\\\"text-align: center\\\">\u00a0<\/p><p style=\\\"text-align: center\\\">\u00a0<\/p><p style=\\\"text-align: center\\\">\u00a0<\/p><p style=\\\"text-align: center\\\">Rodzice s\u0105 zachwyceni hotelem, my pewnie te\u017c b\u0119dziemy.<\/p><p style=\\\"text-align: center\\\">Tym razem to my podkradli\u015bmy im pomys\u0142.\u00a0<\/p><p style=\\\"text-align: center\\\">\u00a0<\/p><p style=\\\"text-align: center\\\">\u00a0<\/p>",
      "date": 1468527739,
      "note_title": "",
      "user_id": 11071313,
      "picture_height": 0,
      "comments": 0,
      "username_avatar": "https://dl.dropboxusercontent.com/u/117534/13754302_10154133516606348_6119914870363595361_n.jpg",
      "fid": 174731325
    },
    {
      "username": "prdl",
      "picture": "http://o2.fbl.pl/w640/o4/201607/E5/174731247.jpg",
      "liked": false,
      "picture_width": 0,
      "likes": 0,
      "note_text": "dop\u00f3ki nie za\u015bniesz",
      "date": 1468524141,
      "note_title": "",
      "user_id": 11341297,
      "picture_height": 0,
      "comments": 0,
      "username_avatar": "https://dl.dropboxusercontent.com/u/117534/13754302_10154133516606348_6119914870363595361_n.jpg",
      "fid": 174731247
    },
    {
      "username": "nataalalala",
      "picture": "http://o3.fbl.pl/w640/o2/201607/7F/174731233.jpg",
      "liked": false,
      "picture_width": 0,
      "likes": 0,
      "note_text": "<p>\u00a0<\/p><p>\u00a0<\/p><p>\u00a0<\/p><p>\u00a0<\/p><p>\u00a0<\/p><p>\u00a0<\/p><p><em><span style=\\\"font-size: 12pt; font-family: \\'andale mono\\', times\\\">zalewa m\u00f3j pi\u0119kny Gda\u0144sk...<\/span><\/em><\/p><p>\u00a0<\/p><p>\u00a0<\/p>",
      "date": 1468523984,
      "note_title": "",
      "user_id": 10454691,
      "picture_height": 0,
      "comments": 0,
      "username_avatar": "https://dl.dropboxusercontent.com/u/117534/13754302_10154133516606348_6119914870363595361_n.jpg",
      "fid": 174731233
    },
    {
      "username": "anonymouspig",
      "picture": "http://o2.fbl.pl/w640/o3/201607/0B/174731165.jpg",
      "liked": false,
      "picture_width": 0,
      "likes": 0,
      "note_text": "",
      "date": 1468525513,
      "note_title": "",
      "user_id": 11854525,
      "picture_height": 0,
      "comments": 2,
      "username_avatar": "https://dl.dropboxusercontent.com/u/117534/13754302_10154133516606348_6119914870363595361_n.jpg",
      "fid": 174731165
    },
    {
      "username": "gosiija",
      "picture": "http://o3.fbl.pl/w640/o5/201607/10/174731159.jpg",
      "liked": false,
      "picture_width": 0,
      "likes": 0,
      "note_text": "<p><span style=\\\"font-size: 10pt\\\">Chyba wcale nie jestem taka z\u0142a. Dzi\u015b by\u0142am bardzo mi\u0142a do wielu os\u00f3b. Mo\u017ce jednak si\u0119 nie staczam?<\/span><\/p><p><span style=\\\"font-size: 10pt\\\">A mo\u017ce po prostu mia\u0142am dzi\u015b wyj\u0105tkowo dobry dzie\u0144.\u00a0<\/span><\/p><p>\u00a0<\/p><p><span style=\\\"font-size: 10pt\\\">Marz\u0119 o d\u0142ugim \u015bnie...<\/span><\/p>",
      "date": 1468523000,
      "note_title": "",
      "user_id": 12231991,
      "picture_height": 0,
      "comments": 6,
      "username_avatar": "https://dl.dropboxusercontent.com/u/117534/13754302_10154133516606348_6119914870363595361_n.jpg",
      "fid": 174731159
    },
    {
      "username": "mysteriousgirl",
      "picture": "http://o1.fbl.pl/w640/o4/201607/95/174731117.jpg",
      "liked": false,
      "picture_width": 0,
      "likes": 0,
      "note_text": "<p style=\\\"text-align: center\\\"><span style=\\\"font-size: 12pt; font-family: georgia, palatino\\\"><em><strong>Nie jest tajemnic\u0105, to \u017ce nie jestem zwolenniczk\u0105 takiej przestarza\u0142ej instytucji jak ma\u0142\u017ce\u0144stwo, nie jest mi ono do niczego, ani tym bardziej do szcz\u0119\u015bcia potrzebne.\u00a0<\/strong><\/em><\/span><\/p><p style=\\\"text-align: center\\\"><span style=\\\"font-size: 12pt; font-family: georgia, palatino\\\"><em><strong>Zawsze m\u00f3wi\u0119 \u017ce, jest tylko jedna osoba, kt\u00f3rej nigdy nie powiedzia\u0142abym \\\"nie\\\" przy pierws",
      "date": 1468522247,
      "note_title": "Kosmiczny pi\u0105tek",
      "user_id": 429863,
      "picture_height": 0,
      "comments": 2,
      "username_avatar": "https://dl.dropboxusercontent.com/u/117534/13754302_10154133516606348_6119914870363595361_n.jpg",
      "fid": 174731117
    },
    {
      "username": "radzia",
      "picture": "http://o3.fbl.pl/w640/o5/201607/DF/174731089.jpg",
      "liked": false,
      "picture_width": 0,
      "likes": 0,
      "note_text": "<p style=\\\" padding: 0px; border: 0px; outline: 0px; font-size: 13px; vertical-align: baseline; line-height: 16.9px; font-family: Verdana, Arial, Verdana, sans-serif; text-align: center\\\">\u00a0<\/p><p style=\\\" padding: 0px; border: 0px; outline: 0px; font-size: 13px; vertical-align: baseline; line-height: 16.9px; font-family: Verdana, Arial, Verdana, sans-serif; text-align: center\\\">\u00a0<\/p><p style=\\\" padding: 0px; border: 0px; outline: 0px; font-size: 13px; vertical-align: baseline; line-height: 16.9p",
      "date": 1468524158,
      "note_title": "Natalia",
      "user_id": 75641,
      "picture_height": 0,
      "comments": 6,
      "username_avatar": "https://dl.dropboxusercontent.com/u/117534/13754302_10154133516606348_6119914870363595361_n.jpg",
      "fid": 174731089
    },
    {
      "username": "patkazp",
      "picture": "http://o5.fbl.pl/w640/o3/201607/01/174731035.jpg",
      "liked": false,
      "picture_width": 0,
      "likes": 0,
      "note_text": "<p style=\"text-align: center\">\u00a0<\/p><p style=\"text-align: center\">\u00a0<\/p><p style=\"text-align: center\">\u00a0<\/p><p style=\"text-align: center\"><span style=\"color:#666666; font-family: Tahoma; font-size: 11.5px; line-height: 15px; background-color: #ffffff\">pi\u0119kna pogoda jest za oknem, a w domciu ciep\u0142o, przytulnie, zm\u0119czenie po ci\u0119\u017ckich nocach poza domem,<\/span><\/p><p style=\"text-align: center\"><span style=\"color:#666666; font-family: Tahoma; font-size: 11.5px; line-height: 15px; background-color: #ffff",
      "date": 1468520631,
      "note_title": "DEV$$STAR",
      "user_id": 444612,
      "picture_height": 0,
      "comments": 1,
      "username_avatar": "https://dl.dropboxusercontent.com/u/117534/13754302_10154133516606348_6119914870363595361_n.jpg",
      "fid": 174731035
    },
    {
      "username": "suppressed",
      "picture": "http://o3.fbl.pl/w640/o3/201607/AB/174731015.jpg",
      "liked": false,
      "picture_width": 0,
      "likes": 0,
      "note_text": "<p style=\\\"text-align: center\\\">\u00a0<\/p><p style=\\\"text-align: center\\\">\u00a0<\/p><p style=\\\"text-align: center\\\">\u00a0<\/p><p style=\\\"text-align: center\\\">By\u0142am w Zarze i znowu co\u015b kupi\u0142am, nie to nie zakupoholizm.<\/p><p style=\\\"text-align: center\\\">Marcin obieca\u0142, \u017ce p\u00f3jdziemy na parasailing je\u017celi ja naucz\u0119 si\u0119 je\u017cdzi\u0107 motocyklem.<\/p><p style=\\\"text-align: center\\\">Challenge accepted.\u00a0<\/p>",
      "date": 1468520329,
      "note_title": " ",
      "user_id": 11071313,
      "picture_height": 0,
      "comments": 0,
      "username_avatar": "https://dl.dropboxusercontent.com/u/117534/13754302_10154133516606348_6119914870363595361_n.jpg",
      "fid": 174731015
    },
    {
      "username": "sisii",
      "picture": "http://o5.fbl.pl/w640/o2/201607/14/174730983.jpg",
      "liked": false,
      "picture_width": 0,
      "likes": 0,
      "note_text": "<p>Lets this party started<\/p>",
      "date": 1468519941,
      "note_title": "przy\u0142apana",
      "user_id": 10381401,
      "picture_height": 0,
      "comments": 0,
      "username_avatar": "https://dl.dropboxusercontent.com/u/117534/13754302_10154133516606348_6119914870363595361_n.jpg",
      "fid": 174730983
    },
    {
      "username": "woob",
      "picture": "http://o5.fbl.pl/w640/o2/201607/63/174730843.jpg",
      "liked": false,
      "picture_width": 0,
      "likes": 0,
      "note_text": "Brno",
      "date": 1468520190,
      "note_title": "",
      "user_id": 11862977,
      "picture_height": 0,
      "comments": 2,
      "username_avatar": "https://dl.dropboxusercontent.com/u/117534/13754302_10154133516606348_6119914870363595361_n.jpg",
      "fid": 174730843
    },
    {
      "username": "niezalogowany",
      "picture": "http://o1.fbl.pl/w640/o4/201607/E6/174730747.jpg",
      "liked": false,
      "picture_width": 0,
      "likes": 0,
      "note_text": "Idzie si\u0119 zakocha\u0107 w tym mie\u015bcie. ~#[WrocLove]$~",
      "date": 1468518878,
      "note_title": "",
      "user_id": 478105,
      "picture_height": 0,
      "comments": 5,
      "username_avatar": "https://dl.dropboxusercontent.com/u/117534/13754302_10154133516606348_6119914870363595361_n.jpg",
      "fid": 174730747
    },
    {
      "username": "oldzik",
      "picture": "http://o5.fbl.pl/w640/o4/201607/7B/174730737.jpg",
      "liked": false,
      "picture_width": 0,
      "likes": 0,
      "note_text": "<p style=\"font-size: 12px; vertical-align: baseline; font-family: Arial, Helvetica, Verdana, Tahoma; line-height: 15.6px; text-align: center\">\u00a0snap: oldzikcover<\/p><p style=\"font-size: 12px; vertical-align: baseline; font-family: Arial, Helvetica, Verdana, Tahoma; line-height: 15.6px; text-align: center\">\u00a0<\/p><p style=\"font-size: 12px; vertical-align: baseline; font-family: Arial, Helvetica, Verdana, Tahoma; line-height: 15.6px; text-align: center\"><a href=\"https://www.youtube.com/watch?v=xJxq9w",
      "date": 1468516229,
      "note_title": "",
      "user_id": 10321914,
      "picture_height": 0,
      "comments": 2,
      "username_avatar": "https://dl.dropboxusercontent.com/u/117534/13754302_10154133516606348_6119914870363595361_n.jpg",
      "fid": 174730737
    },
    {
      "username": "psychickid",
      "picture": "http://o2.fbl.pl/w640/o5/201607/DB/174730719.jpg",
      "liked": false,
      "picture_width": 0,
      "likes": 0,
      "note_text": "<p style=\\\"text-align: center\\\">\u00a0<\/p><p style=\\\"text-align: center\\\">\u00a0<\/p><p style=\\\"text-align: center\\\"><span style=\\\"font-size: 8pt; font-family: \\'book antiqua\\', palatino\\\">jutro b\u0119dzie walka z bossem<\/span><\/p><p style=\\\"text-align: center\\\"><span style=\\\"font-size: 8pt; font-family: \\'book antiqua\\', palatino\\\">a na blogu nowy post, zapraszam!<\/span><\/p><p style=\\\"text-align: center\\\">\u00a0<\/p><p style=\\\"text-align: center\\\">\u00a0<\/p><p style=\\\"text-align: center\\\">\u00a0<\/p><p style=\\\"text-align: cen",
      "date": 1468518485,
      "note_title": "",
      "user_id": 359820,
      "picture_height": 0,
      "comments": 1,
      "username_avatar": "https://dl.dropboxusercontent.com/u/117534/13754302_10154133516606348_6119914870363595361_n.jpg",
      "fid": 174730719
    },
    {
      "username": "aleksandrra22",
      "picture": "http://o1.fbl.pl/w640/o2/201607/D6/174730713.jpg",
      "liked": false,
      "picture_width": 0,
      "likes": 0,
      "note_text": "<p>Taaaki Ramiii &lt;3<\/p>",
      "date": 1468515939,
      "note_title": "",
      "user_id": 12360718,
      "picture_height": 0,
      "comments": 1,
      "username_avatar": "https://dl.dropboxusercontent.com/u/117534/13754302_10154133516606348_6119914870363595361_n.jpg",
      "fid": 174730713
    },
    {
      "username": "monia",
      "picture": "http://o1.fbl.pl/w640/o1/201607/42/174730631.jpg",
      "liked": false,
      "picture_width": 0,
      "likes": 0,
      "note_text": "<p style=\\\"text-align: center\\\">\u00a0<\/p><p style=\\\"text-align: center\\\"><span style=\\\"color:#c0c0c0; font-size: 10pt\\\">modelowa\u0142a: <span style=\\\"color:#ffffff\\\"><strong>Dagmara<\/strong><\/span><\/span><\/p><p style=\\\"text-align: center\\\"><span style=\\\"color:#c0c0c0; font-size: 10pt\\\">malowa\u0142a: <span style=\\\"color:#ffffff\\\"><strong>Madzia <em><a href=\\\"/proxy.php?to=7be956a586142f98321bf3cf693ade04&amp;h=TmpJME5UWTNNVFF3Wm9jVkN2UGJFYk04VDVqNXl3PT0=&amp;backUrl=http%3A%2F%2Fwww.photoblog.pl%2Fmonia%2F17",
      "date": 1468517527,
      "note_title": "",
      "user_id": 11166388,
      "picture_height": 0,
      "comments": 2,
      "username_avatar": "https://dl.dropboxusercontent.com/u/117534/13754302_10154133516606348_6119914870363595361_n.jpg",
      "fid": 174730631
    },
    {
      "username": "libroo",
      "picture": "http://o4.fbl.pl/w640/o2/201607/EB/174730613.jpg",
      "liked": false,
      "picture_width": 0,
      "likes": 0,
      "note_text": "<p>Foty, foty, foty, ju\u017c nie mam troch\u0119 si\u0142y, a r\u0119ka wysiada... :P<\/p>",
      "date": 1468517144,
      "note_title": "",
      "user_id": 10536540,
      "picture_height": 0,
      "comments": 0,
      "username_avatar": "https://dl.dropboxusercontent.com/u/117534/13754302_10154133516606348_6119914870363595361_n.jpg",
      "fid": 174730613
    },
    {
      "username": "majlsmajl",
      "picture": "http://o4.fbl.pl/w640/o5/201607/59/174730499.jpg",
      "liked": false,
      "picture_width": 0,
      "likes": 0,
      "note_text": "<p style=\"text-align: center\"><strong><span style=\"font-family: arial black,avant garde; color: #008000\">\"Noc wycisza. Noc jest magiczna. Noc\u0105 s\u0142owa staj\u0105 si\u0119 puszyste jak koty, ciche, skradaj\u0105 si\u0119, mrucz\u0105, k\u0142amstwa chowaj\u0105 si\u0119 przed nimi jak myszy, \u0142atwiej jest powiedzie\u0107 prawd\u0119<\/span><\/strong><\/p><p style=\"text-align: center\"><strong><span style=\"font-family: arial black,avant garde; color: #008000\">. Noc\u0105 ludzie wydaj\u0105 si\u0119 bli\u017csi, wszystko zni\u017ca si\u0119 do szeptu, wszystko czuje si\u0119 bardziej (...",
      "date": 1468514754,
      "note_title": "",
      "user_id": 620607,
      "picture_height": 0,
      "comments": 4,
      "username_avatar": "https://dl.dropboxusercontent.com/u/117534/13754302_10154133516606348_6119914870363595361_n.jpg",
      "fid": 174730499
    },
    {
      "username": "prdl",
      "picture": "http://o5.fbl.pl/w640/o3/201607/08/174730465.jpg",
      "liked": false,
      "picture_width": 0,
      "likes": 0,
      "note_text": "",
      "date": 1468511667,
      "note_title": "",
      "user_id": 11341297,
      "picture_height": 0,
      "comments": 1,
      "username_avatar": "https://dl.dropboxusercontent.com/u/117534/13754302_10154133516606348_6119914870363595361_n.jpg",
      "fid": 174730465
    },
    {
      "username": "prdl",
      "picture": "http://o4.fbl.pl/w640/o5/201607/53/174730389.jpg",
      "liked": false,
      "picture_width": 0,
      "likes": 0,
      "note_text": "",
      "date": 1468513038,
      "note_title": "",
      "user_id": 11341297,
      "picture_height": 0,
      "comments": 0,
      "username_avatar": "https://dl.dropboxusercontent.com/u/117534/13754302_10154133516606348_6119914870363595361_n.jpg",
      "fid": 174730389
    },
    {
      "username": "wyyrafinowana",
      "picture": "http://o5.fbl.pl/w640/o4/201607/13/174730347.jpg",
      "liked": false,
      "picture_width": 0,
      "likes": 0,
      "note_text": "<p style=\"text-align: center\"><span style=\"color:#000000\">za\u0142atwia\u0142am milion spraw z rodzicami, zmok\u0142am i ca\u0142y dzie\u0144 wygl\u0105da\u0142am jak pudel,<\/span><\/p><p style=\"text-align: center\"><span style=\"color:#000000\">ale to zdecydowanie by\u0142 dobry dzie\u0144<\/span><\/p>",
      "date": 1468512140,
      "note_title": "",
      "user_id": 11270752,
      "picture_height": 0,
      "comments": 0,
      "username_avatar": "https://dl.dropboxusercontent.com/u/117534/13754302_10154133516606348_6119914870363595361_n.jpg",
      "fid": 174730347
    },
    {
      "username": "gumosia",
      "picture": "http://o1.fbl.pl/w640/o2/201607/31/174730323.jpg",
      "liked": false,
      "picture_width": 0,
      "likes": 0,
      "note_text": "",
      "date": 1468508555,
      "note_title": "",
      "user_id": 337066,
      "picture_height": 0,
      "comments": 0,
      "username_avatar": "https://dl.dropboxusercontent.com/u/117534/13754302_10154133516606348_6119914870363595361_n.jpg",
      "fid": 174730323
    },
    {
      "username": "icarolajn",
      "picture": "http://o5.fbl.pl/w640/o1/201607/38/174730271.jpg",
      "liked": false,
      "picture_width": 0,
      "likes": 0,
      "note_text": "<div><div><div><div><div><div><div><div><div><div><div><div><div><div><div><div><div><div><div><div><div><div><div><div><div><div><div><div><div><div><div><div><div><div><div><div><div><div><div><div><div><div><div><div style=\\\"text-align: center\\\"><p style=\\\"text-align: center\\\"><a href=\\\"http://icarolajn.deviantart.com/art/Dominika-III-621578701\\\"><strong><span style=\\\"text-decoration: underline\\\"><span style=\\\"font-size: 10pt\\\">LEPSZA JAKO\u015a\u0106 (klik).<\/span><\/span><\/strong><\/a><\/p><p style=\\\"te",
      "date": 1468509831,
      "note_title": "Dominika III",
      "user_id": 12331500,
      "picture_height": 0,
      "comments": 6,
      "username_avatar": "https://dl.dropboxusercontent.com/u/117534/13754302_10154133516606348_6119914870363595361_n.jpg",
      "fid": 174730271
    },
    {
      "username": "aleksandrra22",
      "picture": "http://o2.fbl.pl/w640/o1/201607/27/174730181.jpg",
      "liked": false,
      "picture_width": 0,
      "likes": 0,
      "note_text": "<p>&lt;3<\/p>",
      "date": 1468505862,
      "note_title": "",
      "user_id": 12360718,
      "picture_height": 0,
      "comments": 0,
      "username_avatar": "https://dl.dropboxusercontent.com/u/117534/13754302_10154133516606348_6119914870363595361_n.jpg",
      "fid": 174730181
    },
    {
      "username": "mysteriousgirl",
      "picture": "http://o2.fbl.pl/w640/o4/201607/7B/174730177.jpg",
      "liked": false,
      "picture_width": 0,
      "likes": 0,
      "note_text": "Na 17:00 mam do dentysty i uwi\u0119zi\u0142am si\u0119 w korku na obwodnicy przez Tour de Pologne...",
      "date": 1468505845,
      "note_title": "",
      "user_id": 429863,
      "picture_height": 0,
      "comments": 1,
      "username_avatar": "https://dl.dropboxusercontent.com/u/117534/13754302_10154133516606348_6119914870363595361_n.jpg",
      "fid": 174730177
    },
    {
      "username": "cludiart",
      "picture": "http://o4.fbl.pl/w640/o1/201607/7F/174730171.jpg",
      "liked": false,
      "picture_width": 0,
      "likes": 0,
      "note_text": "",
      "date": 0,
      "note_title": "Flowers",
      "user_id": 11159368,
      "picture_height": 0,
      "comments": 0,
      "username_avatar": "https://dl.dropboxusercontent.com/u/117534/13754302_10154133516606348_6119914870363595361_n.jpg",
      "fid": 174730171
    },
    {
      "username": "prdl",
      "picture": "http://o1.fbl.pl/w640/o5/201607/63/174730149.jpg",
      "liked": false,
      "picture_width": 0,
      "likes": 0,
      "note_text": "XD",
      "date": 1468505569,
      "note_title": "",
      "user_id": 11341297,
      "picture_height": 0,
      "comments": 0,
      "username_avatar": "https://dl.dropboxusercontent.com/u/117534/13754302_10154133516606348_6119914870363595361_n.jpg",
      "fid": 174730149
    },
    {
      "username": "helsonik",
      "picture": "http://o5.fbl.pl/w640/o2/201607/19/174730083.jpg",
      "liked": false,
      "picture_width": 0,
      "likes": 0,
      "note_text": "<p style=\\\"text-align: center\\\"><span style=\\\"font-size: 10pt\\\"><br><br>Magda Robak / NEVA models<\/span><br><br><\/p><p style=\\\"text-align: center\\\">\u00a0<\/p><p style=\\\"text-align: center\\\">\u00a0<\/p><p style=\\\"text-align: center\\\"><span style=\\\"font-size: 10pt\\\">Pogodo, ale tak kt\u00f3ry\u015b dzie\u0144 z kolei?<\/span><br><span style=\\\"font-size: 10pt\\\">Daj no s\u0142o\u0144ce<\/span><\/p><p style=\\\"text-align: center\\\">\u00a0<\/p><div style=\\\" padding: 0px; border: 0px; outline: 0px; font-size: 10px; vertical-align: baseline; font-fa",
      "date": 1468504366,
      "note_title": "Magda / NEVA models",
      "user_id": 10165979,
      "picture_height": 0,
      "comments": 1,
      "username_avatar": "https://dl.dropboxusercontent.com/u/117534/13754302_10154133516606348_6119914870363595361_n.jpg",
      "fid": 174730083
    },
    {
      "username": "mysteriousgirl",
      "picture": "http://o3.fbl.pl/w640/o5/201607/D1/174730009.jpg",
      "liked": false,
      "picture_width": 0,
      "likes": 0,
      "note_text": "<p style=\\\"text-align: center\\\">\u00a0<\/p><p style=\\\"text-align: center\\\"><span style=\\\"font-size: 12pt; font-family: georgia, palatino\\\"><em><strong>Jest \u015bwietnie, jest bezdzietnie<\/strong><\/em><\/span><\/p><p style=\\\"text-align: center\\\"><span style=\\\"font-size: 12pt; font-family: georgia, palatino\\\"><em><strong>Mieszkanko jak szkatu\u0142ka<\/strong><\/em><\/span><\/p><p style=\\\"text-align: center\\\"><span style=\\\"font-size: 12pt; font-family: georgia, palatino\\\"><em><strong>Z paniami jest dyskretnie<\/strong>",
      "date": 1468505067,
      "note_title": "Jest \u015bwietnie",
      "user_id": 429863,
      "picture_height": 0,
      "comments": 1,
      "username_avatar": "https://dl.dropboxusercontent.com/u/117534/13754302_10154133516606348_6119914870363595361_n.jpg",
      "fid": 174730009
    },
    {
      "username": "maaaaarcela",
      "picture": "http://o3.fbl.pl/w640/o5/201607/E5/174729919.jpg",
      "liked": false,
      "picture_width": 0,
      "likes": 0,
      "note_text": "w \u015brode Niemcy:)",
      "date": 1468503387,
      "note_title": "",
      "user_id": 11190700,
      "picture_height": 0,
      "comments": 0,
      "username_avatar": "https://dl.dropboxusercontent.com/u/117534/13754302_10154133516606348_6119914870363595361_n.jpg",
      "fid": 174729919
    },
    {
      "username": "prdl",
      "picture": "http://o1.fbl.pl/w640/o4/201607/57/174729907.jpg",
      "liked": false,
      "picture_width": 0,
      "likes": 0,
      "note_text": "",
      "date": 1468503244,
      "note_title": "",
      "user_id": 11341297,
      "picture_height": 0,
      "comments": 0,
      "username_avatar": "https://dl.dropboxusercontent.com/u/117534/13754302_10154133516606348_6119914870363595361_n.jpg",
      "fid": 174729907
    },
    {
      "username": "michay",
      "picture": "http://o4.fbl.pl/w640/o1/201607/AB/174729881.jpg",
      "liked": false,
      "picture_width": 0,
      "likes": 0,
      "note_text": "<p style=\\\"text-align: center\\\">\u00a0<\/p><p style=\\\"text-align: center\\\">\u00a0<\/p><p style=\\\"text-align: center\\\"><span style=\\\"font-size: 12pt; color: #a99be8; font-family: \\'andale mono\\', times\\\">Lata\u0107 w przestworza w nie odgadni\u0119te zak\u0105tki umys\u0142u...<\/span><\/p><p style=\\\"text-align: center\\\"><span style=\\\"font-size: 12pt; color: #a99be8; font-family: \\'andale mono\\', times\\\">Tyle o sobie jeszcze nie wiemy.\u00a0<\/span><\/p><p style=\\\"text-align: center\\\">\u00a0<\/p><p style=\\\"text-align: center\\\"><span style=\\\"f",
      "date": 1468500121,
      "note_title": "W przestworza ",
      "user_id": 900964,
      "picture_height": 0,
      "comments": 0,
      "username_avatar": "https://dl.dropboxusercontent.com/u/117534/13754302_10154133516606348_6119914870363595361_n.jpg",
      "fid": 174729881
    },
    {
      "username": "katarynkka",
      "picture": "http://o5.fbl.pl/w640/o3/201607/AB/174729695.jpg",
      "liked": false,
      "picture_width": 0,
      "likes": 0,
      "note_text": "",
      "date": 1468495898,
      "note_title": "",
      "user_id": 11061036,
      "picture_height": 0,
      "comments": 1,
      "username_avatar": "https://dl.dropboxusercontent.com/u/117534/13754302_10154133516606348_6119914870363595361_n.jpg",
      "fid": 174729695
    },
    {
      "username": "bartzz",
      "picture": "http://o1.fbl.pl/w640/o5/201607/5D/174729589.jpg",
      "liked": false,
      "picture_width": 0,
      "likes": 0,
      "note_text": "<p>mod: Alicja<\/p><p style=\\\"text-align: center\\\"><span style=\\\"font-family: arial,helvetica,sans-serif\\\"><strong><span style=\\\"color:#ff6600\\\"><span style=\\\"font-size: 24pt\\\"><span style=\\\"font-size: 24pt\\\"><a href=\\\"/proxy.php?to=5cc1116196726c2cc41f176153b8c6a5&amp;h=TkRkak1EQmlOREJpTXB6bktITGxzYWFmSzB5MjlVbz0=&amp;backUrl=http%3A%2F%2Fwww.photoblog.pl%2Fbartzz%2F89630973\\\" target=\\\"_blank\\\"><span style=\\\"font-size: 24pt; color: #ff6600\\\"><span style=\\\"font-size: 24pt\\\"><span style=\\\"font-siz",
      "date": 1468496343,
      "note_title": "",
      "user_id": 57886,
      "picture_height": 0,
      "comments": 2,
      "username_avatar": "https://dl.dropboxusercontent.com/u/117534/13754302_10154133516606348_6119914870363595361_n.jpg",
      "fid": 174729589
    },
    {
      "username": "cludiart",
      "picture": "http://o5.fbl.pl/w640/o4/201607/80/174729537.jpg",
      "liked": false,
      "picture_width": 0,
      "likes": 0,
      "note_text": "",
      "date": 1468495461,
      "note_title": "leje pada leje",
      "user_id": 11159368,
      "picture_height": 0,
      "comments": 0,
      "username_avatar": "https://dl.dropboxusercontent.com/u/117534/13754302_10154133516606348_6119914870363595361_n.jpg",
      "fid": 174729537
    },
    {
      "username": "anitafphotographie",
      "picture": "http://o2.fbl.pl/w640/o3/201607/29/174729515.jpg",
      "liked": false,
      "picture_width": 0,
      "likes": 0,
      "note_text": "Domowy wielki burger. :)",
      "date": 1468492499,
      "note_title": "",
      "user_id": 9975163,
      "picture_height": 0,
      "comments": 4,
      "username_avatar": "https://dl.dropboxusercontent.com/u/117534/13754302_10154133516606348_6119914870363595361_n.jpg",
      "fid": 174729515
    },
    {
      "username": "polpaco",
      "picture": "http://o3.fbl.pl/w640/o5/201607/98/174729509.jpg",
      "liked": false,
      "picture_width": 0,
      "likes": 0,
      "note_text": "<p style=\\\" padding: 0px; border: 0px; outline: 0px; font-size: 12px; vertical-align: baseline; font-family: Arial, Helvetica, Verdana, Tahoma; line-height: 15.6px; text-align: center\\\"><span style=\\\" padding: 0px; border: 0px; outline: 0px; font-size: 12pt; vertical-align: baseline; font-family: \\'courier new\\', courier; color: #333333; background-color: #c0c0c0\\\">zapraszam na fejsbuczka po wi\u0119cej obrazk\u00f3w!<\/span><\/p><p style=\\\" padding: 0px; border: 0px; outline: 0px; font-size: 12px; vertical",
      "date": 1468494957,
      "note_title": "",
      "user_id": 11848709,
      "picture_height": 0,
      "comments": 3,
      "username_avatar": "https://dl.dropboxusercontent.com/u/117534/13754302_10154133516606348_6119914870363595361_n.jpg",
      "fid": 174729509
    },
    {
      "username": "wyyrafinowana",
      "picture": "http://o3.fbl.pl/w640/o2/201607/9F/174729453.jpg",
      "liked": false,
      "picture_width": 0,
      "likes": 0,
      "note_text": "ju\u017c zaplanowa\u0142am prezent dla dziadk\u00f3w, a dzi\u015b ogarne sobie wszystkie miejsca gdzie chcialabym zajrzec,<br>",
      "date": 1468494012,
      "note_title": "",
      "user_id": 11270752,
      "picture_height": 0,
      "comments": 0,
      "username_avatar": "https://dl.dropboxusercontent.com/u/117534/13754302_10154133516606348_6119914870363595361_n.jpg",
      "fid": 174729453
    },
    {
      "username": "mysteriousgirl",
      "picture": "http://o1.fbl.pl/w640/o2/201607/95/174729343.jpg",
      "liked": false,
      "picture_width": 0,
      "likes": 0,
      "note_text": "<p style=\\\"text-align: center\\\"><span style=\\\"font-size: 12pt; font-family: georgia, palatino\\\"><strong><em>M\u00f3j kot w swoim \u017cywiole. Teraz k\u0105pie si\u0119 ju\u017c w pe\u0142nej wannie wody, bo miska jej ju\u017c nie wystarcza. Zawsze gdy j\u0105 myj\u0119, opiera si\u0119 przednimi \u0142apkami o wann\u0119 i nastawia si\u0119 do szorowania, mruczy przy tym jak szalona. Pozosta\u0142e moje koty na sam widok \u0142azienki s\u0105 ju\u017c 2 km dalej, a Milka pcha si\u0119 wsz\u0119dzie tam gdzie tylko jest woda. Gdy wychodz\u0119 z ni\u0105 na spacer, to pierwsze ci\u0105gnie mnie do strum",
      "date": 1468491965,
      "note_title": "Czas na k\u0105piel :)",
      "user_id": 429863,
      "picture_height": 0,
      "comments": 5,
      "username_avatar": "https://dl.dropboxusercontent.com/u/117534/13754302_10154133516606348_6119914870363595361_n.jpg",
      "fid": 174729343
    },
    {
      "username": "pinkydream",
      "picture": "http://o1.fbl.pl/w640/o1/201607/59/174729291.jpg",
      "liked": false,
      "picture_width": 0,
      "likes": 0,
      "note_text": "Zawsze chcia\u0142am unisex i mam! ;) &lt;3",
      "date": 1468490718,
      "note_title": "",
      "user_id": 10924445,
      "picture_height": 0,
      "comments": 0,
      "username_avatar": "https://dl.dropboxusercontent.com/u/117534/13754302_10154133516606348_6119914870363595361_n.jpg",
      "fid": 174729291
    },
    {
      "username": "suppressed",
      "picture": "http://o5.fbl.pl/w640/o5/201607/B7/174729279.jpg",
      "liked": false,
      "picture_width": 0,
      "likes": 0,
      "note_text": ":)",
      "date": 1468490235,
      "note_title": "",
      "user_id": 11071313,
      "picture_height": 0,
      "comments": 0,
      "username_avatar": "https://dl.dropboxusercontent.com/u/117534/13754302_10154133516606348_6119914870363595361_n.jpg",
      "fid": 174729279
    },
    {
      "username": "aleksandrra22",
      "picture": "http://o1.fbl.pl/w640/o3/201607/BE/174729275.jpg",
      "liked": false,
      "picture_width": 0,
      "likes": 0,
      "note_text": "<p>Ramzes\u00a0 :)\u00a0 Od wczoraaj z nami :) &lt;3 Przystojniaaaak :)<\/p>",
      "date": 1468490095,
      "note_title": "",
      "user_id": 12360718,
      "picture_height": 0,
      "comments": 0,
      "username_avatar": "https://dl.dropboxusercontent.com/u/117534/13754302_10154133516606348_6119914870363595361_n.jpg",
      "fid": 174729275
    },
    {
      "username": "thinloth",
      "picture": "http://o1.fbl.pl/w640/o3/201607/AC/174729245.jpg",
      "liked": false,
      "picture_width": 0,
      "likes": 0,
      "note_text": "<p style=\"text-align: center\">\u00a0<\/p><p style=\"text-align: center\">\u00a0<\/p><p style=\"text-align: center\">\u00a0<\/p><p style=\"text-align: center\"><a href=\"https://www.youtube.com/watch?v=ePvO4DMWMD8\">brzd\u0119ki<\/a><\/p><p style=\"text-align: center\">\u00a0<\/p><p style=\"text-align: center\">\u00a0<\/p><p style=\"text-align: center\">\u00a0<\/p><hr><p style=\"text-align: center\">\u00a0<\/p><p style=\"text-align: right\"><em><span style=\"color:#888888; font-family: book antiqua,palatino\">Jak\u017ce cudownie, gdy w \u015brodku lipca nadarzy si\u0119 deszczow",
      "date": 1468489409,
      "note_title": "",
      "user_id": 776886,
      "picture_height": 0,
      "comments": 1,
      "username_avatar": "https://dl.dropboxusercontent.com/u/117534/13754302_10154133516606348_6119914870363595361_n.jpg",
      "fid": 174729245
    },
    {
      "username": "aquus",
      "picture": "http://o5.fbl.pl/w640/o3/201607/76/174729135.jpg",
      "liked": false,
      "picture_width": 0,
      "likes": 0,
      "note_text": "<p style=\\\"text-align: center\\\"><a href=\\\"https://iamaga.blogspot.com\\\" target=\\\"_blank\\\"><strong><span style=\\\"font-size: 18pt\\\">blogspot<\/span><\/strong><\/a><\/p>",
      "date": 1468487419,
      "note_title": "",
      "user_id": 335860,
      "picture_height": 0,
      "comments": 0,
      "username_avatar": "https://dl.dropboxusercontent.com/u/117534/13754302_10154133516606348_6119914870363595361_n.jpg",
      "fid": 174729135
    },
    {
      "username": "mysteriousgirl",
      "picture": "http://o2.fbl.pl/w640/o3/201607/E2/174728995.jpg",
      "liked": false,
      "picture_width": 0,
      "likes": 0,
      "note_text": "<p style=\\\"text-align: center\\\"><span style=\\\"font-size: 12pt; font-family: georgia, palatino\\\"><strong><em>Queen - Mustapha<\/em><\/strong><\/span><\/p><p style=\\\"text-align: center\\\"><a href=\\\"https://www.youtube.com/watch?v=5-zh0a6nDTo\\\"><span style=\\\"font-size: 12pt; font-family: georgia, palatino\\\"><strong><em>KLIK<\/em><\/strong><\/span><\/a><\/p>",
      "date": 1468484449,
      "note_title": "Zm\u0119czenie - wersja 2",
      "user_id": 429863,
      "picture_height": 0,
      "comments": 0,
      "username_avatar": "https://dl.dropboxusercontent.com/u/117534/13754302_10154133516606348_6119914870363595361_n.jpg",
      "fid": 174728995
    },
    {
      "username": "gumosia",
      "picture": "http://o5.fbl.pl/w640/o5/201607/53/174728989.jpg",
      "liked": false,
      "picture_width": 0,
      "likes": 0,
      "note_text": "",
      "date": 1468484346,
      "note_title": "",
      "user_id": 337066,
      "picture_height": 0,
      "comments": 4,
      "username_avatar": "https://dl.dropboxusercontent.com/u/117534/13754302_10154133516606348_6119914870363595361_n.jpg",
      "fid": 174728989
    },
    {
      "username": "suppressed",
      "picture": "http://o5.fbl.pl/w640/o5/201607/19/174728949.jpg",
      "liked": false,
      "picture_width": 0,
      "likes": 0,
      "note_text": "Rodzice dolecieli. Ja si\u0119 nie wyspa\u0142am. Marcin nawet nie wsta\u0142. A m\u00f3j pies zebra\u0142 ca\u0142y brud z dworu i upa\u0107ka\u0142 pod\u0142og\u0119.",
      "date": 1468483216,
      "note_title": "",
      "user_id": 11071313,
      "picture_height": 0,
      "comments": 1,
      "username_avatar": "https://dl.dropboxusercontent.com/u/117534/13754302_10154133516606348_6119914870363595361_n.jpg",
      "fid": 174728949
    },
    {
      "username": "agnieszkaradtke",
      "picture": "http://o2.fbl.pl/w640/o1/201607/20/174728911.jpg",
      "liked": false,
      "picture_width": 0,
      "likes": 0,
      "note_text": "<p>Bardzo mi\u0142o wspominam ten \u015blub &lt;3\u00a0<br><br><br>a ju\u017c jutro fotografuj\u0119 kolejny \u015blub cywilny, tym razem w Gdyni :)<br><br>Mi\u0142ego dnia!<\/p>",
      "date": 1468481462,
      "note_title": "",
      "user_id": 73017,
      "picture_height": 0,
      "comments": 4,
      "username_avatar": "https://dl.dropboxusercontent.com/u/117534/13754302_10154133516606348_6119914870363595361_n.jpg",
      "fid": 174728911
    }
  ]
}